…
    ## --- There are 2 files available ---

    ## --- Starting Download ---

    ## 
    ##  Downloading file 1 of 2: `colony.csv`
    ##  Downloading file 2 of 2: `stressor.csv`

    ## --- Download complete ---

``` r
tuesdata$colony
```

    ## # A tibble: 1,222 x 10
    ##     year months       state      colony_n colony_max colony_lost colony_lost_pct
    ##    <dbl> <chr>        <chr>         <dbl>      <dbl>       <dbl>           <dbl>
    ##  1  2015 January-Mar… Alabama        7000       7000        1800              26
    ##  2  2015 January-Mar… Arizona       35000      35000        4600              13
    ##  3  2015 January-Mar… Arkansas      13000      14000        1500              11
    ##  4  2015 January-Mar… California  1440000    1690000      255000              15
    ##  5  2015 January-Mar… Colorado       3500      12500        1500              12
    ##  6  2015 January-Mar… Connectic…     3900       3900         870              22
    ##  7  2015 January-Mar… Florida      305000     315000       42000              13
    ##  8  2015 January-Mar… Georgia      104000     105000       14500              14
    ##  9  2015 January-Mar… Hawaii        10500      10500         380               4
    ## 10  2015 January-Mar… Idaho         81000      88000        3700               4
    ## # … with 1,212 more rows, and 3 more variables: colony_added <dbl>,
    ## #   colony_reno <dbl>, colony_reno_pct <dbl>

``` r
tuesdata$stressor
```

    ## # A tibble: 7,332 x 5
    ##     year months        state   stressor              stress_pct
    ##    <dbl> <chr>         <chr>   <chr>                      <dbl>
    ##  1  2015 January-March Alabama Varroa mites                10  
    ##  2  2015 January-March Alabama Other pests/parasites        5.4
    ##  3  2015 January-March Alabama Disesases                   NA  
    ##  4  2015 January-March Alabama Pesticides                   2.2
    ##  5  2015 January-March Alabama Other                        9.1
    ##  6  2015 January-March Alabama Unknown                      9.4
    ##  7  2015 January-March Arizona Varroa mites                26.9
    ##  8  2015 January-March Arizona Other pests/parasites       20.5
    ##  9  2015 January-March Arizona Disesases                    0.1
    ## 10  2015 January-March Arizona Pesticides                  NA  
    ## # … with 7,322 more rows
…
